%YAML 1.1
%TAG !u! tag:unity3d.com,2011:
--- !u!114 &11400000
MonoBehaviour:
  m_ObjectHideFlags: 0
  m_CorrespondingSourceObject: {fileID: 0}
  m_PrefabInstance: {fileID: 0}
  m_PrefabAsset: {fileID: 0}
  m_GameObject: {fileID: 0}
  m_Enabled: 1
  m_EditorHideFlags: 0
  m_Script: {fileID: 11500000, guid: a049e6cff3fcbb94090824be3d8a6301, type: 3}
  m_Name: ScaleTool
  m_EditorClassIdentifier: 
  toolEvent: {fileID: 11400000, guid: 3f270a675ed5ee346900a9e2d58a9e39, type: 2}
  selectedModel: {fileID: 11400000, guid: 88cf690284914be46a8c1a350f13b654, type: 2}
  layerMask:
    serializedVersion: 2
    m_Bits: 256
  mouseSensibility: 0.5
