%YAML 1.1
%TAG !u! tag:unity3d.com,2011:
--- !u!114 &11400000
MonoBehaviour:
  m_ObjectHideFlags: 0
  m_CorrespondingSourceObject: {fileID: 0}
  m_PrefabInstance: {fileID: 0}
  m_PrefabAsset: {fileID: 0}
  m_GameObject: {fileID: 0}
  m_Enabled: 1
  m_EditorHideFlags: 0
  m_Script: {fileID: 11500000, guid: c3fa59e1251712044a9270b9c5f88a32, type: 3}
  m_Name: SelectedModel
  m_EditorClassIdentifier: 
  model: {fileID: 0}
  onDuplicateModel: {fileID: 11400000, guid: 780c47dae045ffe46a7a08bb17602dbc, type: 2}
  onResetModel: {fileID: 11400000, guid: 641cf6f0a2b033a4b98110a7db036674, type: 2}
